[
    "idtask",
    "idcontext",
    "name",
    "idoperation",
    "idevent",
    "idplace",
    "idroom",
    "visual",
    "lock",
    "status",
    "description",
    "schedule",
    "tags",
    "flag_delete"
]